{
  "name" : "ms",
  "description" : "Tiny millisecond conversion utility",
  "version" : "2.1.2",
  "repository" : "zeit/ms",
  "main" : "./index",
  "devDependencies" : {
    "eslint" : "4.12.1",
    "expect.js" : "0.3.1",
    "husky" : "0.14.3",
    "lint-staged" : "5.0.0",
    "mocha" : "4.0.1"
  },
  "license" : "MIT",
  "files" : [ "index.js" ],
  "scripts" : {
    "precommit" : "lint-staged",
    "lint" : "eslint lib/* bin/*",
    "test" : "mocha tests.js"
  },
  "dist" : {
    "tarball" : "//npm-npm-remote-cache/ms/-/ms-2.1.2.tgz",
    "shasum" : "d09d1f357b443f493382a8eb3ccd183872ae6009",
    "integrity" : null
  },
  "lint-staged" : {
    "*.js" : [ "npm run lint", "prettier --single-quote --write", "git add" ]
  },
  "eslintConfig" : {
    "extends" : "eslint:recommended",
    "env" : {
      "node" : true,
      "es6" : true
    }
  }
}